TP3\model\Dia$2.class
TP3\model\RegistoCartoes.class
TP3\model\Tempo.class
TP3\model\PeriodoDeAutorizacao.class
TP3\model\RegistoAcessos.class
TP3\controller\RegistarPerfilDeAutorizacao3Controller.class
TP3\controller\MenuPrincipalController.class
TP3\model\Dia$5.class
TP3\model\AtribuicaoCartao.class
TP3\model\Equipamento.class
TP3\model\Cartao.class
TP3\model\Dia$6.class
TP3\ui\MainApp$1.class
TP3\controller\RegistarPerfilDeAutorizacao2Controller.class
TP3\model\Dia$3.class
TP3\model\RegistoPerfilDeAutorizacao.class
TP3\ui\MainApp.class
TP3\model\ListaPeriodosAutorizacao.class
TP3\model\LeituraExportacao.class
TP3\model\AreaRestrita.class
TP3\model\Dia.class
TP3\controller\RegistarPerfilDeAutorizacaoUIController.class
TP3\model\PerfilDeAutorizacao.class
TP3\model\Dia$1.class
TP3\controller\AcederAreaRestritaController.class
TP3\model\Acesso.class
TP3\model\Data.class
TP3\model\Transferable.class
TP3\model\Empresa.class
TP3\model\RegistoDeEquipamentos.class
TP3\model\Dia$4.class
TP3\model\Colaborador.class
TP3\model\Dia$7.class
TP3\controller\AcercaDeController.class
